{
  "type": "service_account",
  "project_id": "sng-app-112d7",
  "private_key_id": "e6f6617ba5807d7448fd1878b84e23f36bd07ffa",
  "private_key": "-----BEGIN PRIVATE KEY-----\nMIIEvAIBADANBgkqhkiG9w0BAQEFAASCBKYwggSiAgEAAoIBAQDFcD2iDg4Sd0yd\nawPkr5vxGa1pyNTazdIFgDwce9+ED0xezJkV5J7ZuvA9qA5+wRMv3PZtW/u/xm+i\noZxqG60ow6BEM48gMvdr6Tym7tXsLwMiUokU9lz6UKmhcVQzOkypn8vytZa+O3Mr\n2X856cGkVS8qoLMlGt7Hgf6avQRcPiA2kWNhn4NnPcCsat+YuCqVTO+Xt+xz3tKS\nPMt/ZUdPh5ceTtaYko2ma1OGkN947Rp6sbfdhAh2s7+opBjhme1j8tcidfztg7g+\nKTGvyVugy+kOFmJliqY31xmZE73x9ehkCcjfjOXd2Zc1/jmMvH8PPIGGTz5C0+Eq\nU6HY9n2PAgMBAAECggEAD94UZfjBMsS5uJEIMBHY84h/wlesm6Uc8uo6aoOeFAvy\ntE+3IeZMyezXL+1YtOEpfJhCiclxsxjskeJxIqn0wajvMWv/XbQa5GZLRJM/SAsD\nMnf1omSmVkuzRlFIVhGiZaN9DZWAdutqNyT0r5/UuzNJZiCiJSJCs0AESUVVm2AS\nh6rm4XlAwoZ6Jh8pR5TedgTrydukr/GB+y1Uaw9U+Px0wPct1gsdiL8kduxqy3li\nqcaJ/GS+AagOPSVBriCjhg52VJIZ4kd8gpFuipn3uBpqXXMQAKLFVx6BreE8M0QC\n1VfccDi+b29Ks7LD32BKm+R+Uu1Mi6W5AO4q304qAQKBgQD2JSTPLS88VYXHYZ5P\n3uZuuanBfXGL4Lt1gL7fF4TytR9yH0cZBzhAEyPXI3RWPKCM96F2GcJgrRyns12Y\n7r0m6c+wNy1Z4xkhRU0c6UND/d4B1IQe4W7sqGR7xpQLdyNirB7c6UIbPzOEeIdK\nyXG6otY8jRIzzsqU73M/1zJ+jwKBgQDNV+Ez/4zk8o03uEo7s35Tjt9QL2Wae5qk\niEQnAP4fm9gX5q7BWR6jID+BJa5dAr4WFTUcV6xY4gkHFSLIsOP8WIDwoFCJja3e\nXpd+ruCUD4FYuRa82PuZMfCoZjZM66v5YUVJw8h/23dbjNZdO+umIkXKhLQAcX7w\nC0jLgRuRAQKBgCntG776SFBzlMzoUMn0ArYbg9HEZ0HXLrcODfT8EZYxycBrmXWm\n6Crp17H+hQNnYkWArIzsSFKlSfs6rxesmqV1L/4o992WtCIZps/k36NGK7mOFE8a\nQQWojS0UHwVw7qMRBFTGmo7/jevjh8/yTh/nOqynrtEKSTFjM/NM2Xn7AoGAOhJO\nSAxPZjgKI+XkaHnckfjnwp+E1ml6VGmNDJLFS18hf7DnXxq7BVsLWpSzeO5bn5cj\ny/4naYOTFgOuMJ+F+kl1PZe47w24TBjoMxV1wamY5OSDP6kFjk+HRbiSRrKnkgEm\nPTQ3MaF5YdS0ku1tOTCcGCfrV+zA/1XRomvCxgECgYA9DROvZAx4CAyyYHNf6XYR\nQxovkegLiq+h1SaM/hYCJETiQ6Lx42VJ10eLOzig3iEsAOk4XaTzuI0OEiMD2A3v\nEwV9yCVY1wyQ1ETfL+MU7irNuShkUqym/yaA8OOxMYrSI09l2Ws3k1rGrHUoKGeQ\nuv8tN3ZTSDzWFZ9AmM8Vyg==\n-----END PRIVATE KEY-----\n",
  "client_email": "firebase-adminsdk-apvfs@sng-app-112d7.iam.gserviceaccount.com",
  "client_id": "106450726345622871474",
  "auth_uri": "https://accounts.google.com/o/oauth2/auth",
  "token_uri": "https://oauth2.googleapis.com/token",
  "auth_provider_x509_cert_url": "https://www.googleapis.com/oauth2/v1/certs",
  "client_x509_cert_url": "https://www.googleapis.com/robot/v1/metadata/x509/firebase-adminsdk-apvfs%40sng-app-112d7.iam.gserviceaccount.com"
}
